<svg id="_x31_0.Linkedin" xmlns="http://www.w3.org/2000/svg" width="22.128" height="22.128" viewBox="0 0 22.128 22.128">
  <path id="Path_81" data-name="Path 81" d="M52.6,50.43v-8.1c0-3.983-.857-7.026-5.5-7.026a4.8,4.8,0,0,0-4.343,2.379H42.7V35.66H38.3V50.43h4.592V43.1c0-1.936.36-3.789,2.738-3.789,2.351,0,2.379,2.185,2.379,3.9V50.4H52.6Z" transform="translate(-30.472 -28.302)" fill="#fff"/>
  <path id="Path_82" data-name="Path 82" d="M11.3,36.6h4.592V51.371H11.3Z" transform="translate(-10.94 -29.242)" fill="#fff"/>
  <path id="Path_83" data-name="Path 83" d="M12.655,10a2.669,2.669,0,1,0,2.655,2.655A2.656,2.656,0,0,0,12.655,10Z" transform="translate(-10 -10)" fill="#fff"/>
</svg>
